C:\Developpement\workspace-mars\ISOLOC_Interface\src\com\navis\services\argobasicservice\ArgobasicService.java
C:\Developpement\workspace-mars\ISOLOC_Interface\src\info\mgps\isoloc\interfaceGPS\service\message\SocketClientEcn4.java
C:\Developpement\workspace-mars\ISOLOC_Interface\src\info\mgps\isoloc\interfaceGPS\service\socketFlash\SocketServeurManager.java
C:\Developpement\workspace-mars\ISOLOC_Interface\src\info\mgps\isoloc\interfaceGPS\service\socketFlash\Emission.java
C:\Developpement\workspace-mars\ISOLOC_Interface\src\info\mgps\isoloc\interfaceGPS\utilitaire\LogClass.java
C:\Developpement\workspace-mars\ISOLOC_Interface\src\info\mgps\isoloc\interfaceGPS\service\log\AccessDb.java
C:\Developpement\workspace-mars\ISOLOC_Interface\src\info\mgps\isoloc\interfaceGPS\main\StraddleManager.java
C:\Developpement\workspace-mars\ISOLOC_Interface\src\info\mgps\isoloc\interfaceGPS\web\Models\Straddle.java
C:\Developpement\workspace-mars\ISOLOC_Interface\src\info\mgps\isoloc\interfaceGPS\service\socketFlash\Reception.java
C:\Developpement\workspace-mars\ISOLOC_Interface\src\com\navis\services\argobasicservice\BasicInvoke.java
C:\Developpement\workspace-mars\ISOLOC_Interface\src\info\mgps\isoloc\interfaceGPS\service\socketFlash\SocketClient.java
C:\Developpement\workspace-mars\ISOLOC_Interface\src\info\mgps\isoloc\interfaceGPS\service\messageStraddle\Position.java
C:\Developpement\workspace-mars\ISOLOC_Interface\src\info\mgps\isoloc\interfaceGPS\service\message\ConnectionEcn4Exception.java
C:\Developpement\workspace-mars\ISOLOC_Interface\src\info\mgps\isoloc\interfaceGPS\service\message\MessageManager.java
C:\Developpement\workspace-mars\ISOLOC_Interface\src\info\mgps\isoloc\interfaceGPS\service\test\TestServeur.java
C:\Developpement\workspace-mars\ISOLOC_Interface\src\info\mgps\isoloc\interfaceGPS\web\Models\Error.java
C:\Developpement\workspace-mars\ISOLOC_Interface\src\info\mgps\isoloc\interfaceGPS\service\message\SocketServerStraddle.java
C:\Developpement\workspace-mars\ISOLOC_Interface\src\info\mgps\isoloc\interfaceGPS\web\Models\StraddleTimes.java
C:\Developpement\workspace-mars\ISOLOC_Interface\src\info\mgps\isoloc\interfaceGPS\service\test\TestAccesDb.java
C:\Developpement\workspace-mars\ISOLOC_Interface\src\info\mgps\isoloc\interfaceGPS\utilitaire\InOutStraddle.java
C:\Developpement\workspace-mars\ISOLOC_Interface\src\info\mgps\isoloc\interfaceGPS\service\messageStraddle\MessageCheckListDetails.java
C:\Developpement\workspace-mars\ISOLOC_Interface\src\info\mgps\isoloc\interfaceGPS\service\xmlNavis\TestThemAll.java
C:\Developpement\workspace-mars\ISOLOC_Interface\src\info\mgps\isoloc\interfaceGPS\service\socketFlash\SocketServer.java
C:\Developpement\workspace-mars\ISOLOC_Interface\src\info\mgps\isoloc\interfaceGPS\service\xmlNavis\GetVesselNameThread.java
C:\Developpement\workspace-mars\ISOLOC_Interface\src\info\mgps\isoloc\interfaceGPS\service\messageStraddle\MessageStraddleDetails.java
C:\Developpement\workspace-mars\ISOLOC_Interface\src\info\mgps\isoloc\interfaceGPS\web\Models\UserWeb.java
C:\Developpement\workspace-mars\ISOLOC_Interface\src\info\mgps\isoloc\interfaceGPS\service\xmlNavis\MessageXmlWrite.java
C:\Developpement\workspace-mars\ISOLOC_Interface\src\info\mgps\isoloc\interfaceGPS\utilitaire\InOutEcn4.java
C:\Developpement\workspace-mars\ISOLOC_Interface\src\info\mgps\isoloc\interfaceGPS\service\messageStraddle\DealMessageCheckList.java
C:\Developpement\workspace-mars\ISOLOC_Interface\src\info\mgps\isoloc\interfaceGPS\service\xmlNavis\Position.java
C:\Developpement\workspace-mars\ISOLOC_Interface\src\com\navis\services\argobasicservice\BasicInvokeResponse.java
C:\Developpement\workspace-mars\ISOLOC_Interface\src\info\mgps\isoloc\interfaceGPS\service\xmlNavis\Container.java
C:\Developpement\workspace-mars\ISOLOC_Interface\src\com\navis\services\argobasicservice\ArgobasicServicePort.java
C:\Developpement\workspace-mars\ISOLOC_Interface\src\info\mgps\isoloc\interfaceGPS\service\xmlNavis\ReadXml.java
C:\Developpement\workspace-mars\ISOLOC_Interface\src\info\mgps\isoloc\interfaceGPS\web\Models\Utilisateur.java
C:\Developpement\workspace-mars\ISOLOC_Interface\src\com\navis\services\argobasicservice\ObjectFactory.java
C:\Developpement\workspace-mars\ISOLOC_Interface\src\info\mgps\isoloc\interfaceGPS\service\xmlNavis\VesselNames.java
C:\Developpement\workspace-mars\ISOLOC_Interface\src\info\mgps\isoloc\interfaceGPS\main\WorkManagerStart.java
C:\Developpement\workspace-mars\ISOLOC_Interface\src\info\mgps\isoloc\interfaceGPS\service\socketFlash\PerteConnexionException.java
C:\Developpement\workspace-mars\ISOLOC_Interface\src\info\mgps\isoloc\interfaceGPS\web\Models\ParamsMission.java
C:\Developpement\workspace-mars\ISOLOC_Interface\src\com\navis\services\argobasicservice\InvokeResponse.java
C:\Developpement\workspace-mars\ISOLOC_Interface\src\info\mgps\isoloc\interfaceGPS\service\log\AccessDbThread.java
C:\Developpement\workspace-mars\ISOLOC_Interface\src\com\navis\services\argobasicservice\package-info.java
C:\Developpement\workspace-mars\ISOLOC_Interface\src\com\testClient\ArgoBasicServiceTest.java
C:\Developpement\workspace-mars\ISOLOC_Interface\src\info\mgps\isoloc\interfaceGPS\web\web\Controllers\Authentication.java
C:\Developpement\workspace-mars\ISOLOC_Interface\src\com\navis\services\argobasicservice\InvokeRequest.java
C:\Developpement\workspace-mars\ISOLOC_Interface\src\info\mgps\isoloc\interfaceGPS\service\messageStraddle\DealMsgStraddle.java
C:\Developpement\workspace-mars\ISOLOC_Interface\src\info\mgps\isoloc\interfaceGPS\web\web\Controllers\MyController.java
C:\Developpement\workspace-mars\ISOLOC_Interface\src\info\mgps\isoloc\interfaceGPS\service\message\MessageFor.java
C:\Developpement\workspace-mars\ISOLOC_Interface\src\info\mgps\isoloc\interfaceGPS\service\messageStraddle\MessageStraddle.java
C:\Developpement\workspace-mars\ISOLOC_Interface\src\info\mgps\isoloc\interfaceGPS\service\xmlNavis\MessageXmlRead.java
